<?xml version="1.0" encoding="UTF-8" standalone="no"?>
<!-- Created with Inkscape (http://www.inkscape.org/) -->

<svg
   xmlns:dc="http://purl.org/dc/elements/1.1/"
   xmlns:cc="http://creativecommons.org/ns#"
   xmlns:rdf="http://www.w3.org/1999/02/22-rdf-syntax-ns#"
   xmlns:svg="http://www.w3.org/2000/svg"
   xmlns="http://www.w3.org/2000/svg"
   xmlns:xlink="http://www.w3.org/1999/xlink"
   xmlns:sodipodi="http://sodipodi.sourceforge.net/DTD/sodipodi-0.dtd"
   xmlns:inkscape="http://www.inkscape.org/namespaces/inkscape"
   width="200"
   height="200"
   viewBox="0 0 52.916666 52.916667"
   version="1.1"
   id="svg8"
   inkscape:version="0.92.1 r15371"
   sodipodi:docname="avatar.svg">
  <defs
     id="defs2" />
  <sodipodi:namedview
     id="base"
     pagecolor="#ffffff"
     bordercolor="#666666"
     borderopacity="1.0"
     inkscape:pageopacity="0.0"
     inkscape:pageshadow="2"
     inkscape:zoom="0.98994949"
     inkscape:cx="487.21002"
     inkscape:cy="217.75001"
     inkscape:document-units="mm"
     inkscape:current-layer="layer1"
     showgrid="false"
     inkscape:window-width="1366"
     inkscape:window-height="705"
     inkscape:window-x="1272"
     inkscape:window-y="-8"
     inkscape:window-maximized="1"
     units="px" />
  <metadata
     id="metadata5">
    <rdf:RDF>
      <cc:Work
         rdf:about="">
        <dc:format>image/svg+xml</dc:format>
        <dc:type
           rdf:resource="http://purl.org/dc/dcmitype/StillImage" />
        <dc:title></dc:title>
      </cc:Work>
    </rdf:RDF>
  </metadata>
  <g
     inkscape:label="Layer 1"
     inkscape:groupmode="layer"
     id="layer1"
     transform="translate(0,-244.08332)">
    <image
       y="244.54262"
       x="0.61265624"
       id="image51"
       xlink:href="data:image/png;base64,iVBORw0KGgoAAAANSUhEUgAAAIkAAACLCAYAAABV7LrCAAAABHNCSVQICAgIfAhkiAAAIABJREFU eJzkvXeQpMd1J/jLr7z37abNeIPhAAREDEAECEuC7kAj6G4pMqiQVlxe6CRt3GnJ0+6KOkkr7ipE 7kkXJxpRJECKEkWcCEIKGEoDAYQlCEfMwMxMjwF6prunbXnv8/6o+mVlff1VdQMYANRdRnR0VX0u v3wv3/s9ky8F/n/SMpmMu16vx4UQU1LKvTabbdput49JKccajcZIqVRKZLPZiJQy5HK52sFgMOP1 etcMw1gFsGIYxpKUchnAeSHEq81mc8kwjFwkEmm93e/2ZjfxdnfgzWipVCoqpby03W6/R0p5s2EY V0kp3fV6HRcuXMDRo0eRy+UwMjKCeDyOhYUFnDw5i/n582g2mwgGg/B6vdi/fz9mZmbQbrdRqVQg pUQoFML09DRGRkbg8XjgdDoXWq3WP0kpHwPwrBBiLhaLNd7uMbiY7f8TTJLJZALNZvMKALcB+NV2 ux0AACEEGo0G1tbWcO7cOczPz2Nubg5zc3NYW1tDsViE1+tFJBJBNBpFuVxGPp9Hs9lEuVwGIFCv 11Cr1dSznE4ngsEgYrEYJiYmcP311+OKK65AMBiEEJ3htNlsPwHwHQAPJhKJc2/xcFz09q+WSdLp dLzVan1USvkFANv5u5QSQgjY7XZIKXHhwgX89Kc/xUMPPYTZ2Vnkcjm0Wi1IKSGlhM1mw8jICLZv 345wOIxsNouFhQU0m00AQD6fRz6fR71eh2EYsNlsAACbzQbDMJBIJHDllVfiYx/7GC699FIYhgG7 3a4YRgiRB/B9IcRfJRKJ59/qcboY7V8Vk+RyOXe9Xn8vgP8ipbzcfJxEr1QqOHXqFI4ePYq5uTm8 8sorOH/+PMrlMqSUikmEEHC5XAgEgpiYGEcikUAqlUIqlUK9XkcgEEAoFMLq6goWFy+gVqvB4XAo Rmm1WhBCwOv1YmJiAr/2a7+GG264AS6XS52jMQuEEBkp5VeEEN9MJBILb93IvbH2r4JJksnkbgCf k1L+z0CHGczN4XCg0Wjg1VdfxeOPP44jR45gaWkJpVJJnW8YBlwuF+x2OwzDAAA0m014PB5MTk4i FAqhXq8jmUwim82iXC7D6XQiFouh2WwilUqhUqmg1Wqh3W6j3W6jVqtBCAGn04mxsTF85CMfwUc/ +lEkEgnYbLY+JtH7LoR40jCM/xaPx+9/0wfwDbafayZJJpOXA/ialPJq/XchhFIXhmGgVqvh9OnT OHLkCJ566iksLCygWCwqyWKz2dBut+FwOODxeBAIBBGJhOHxeCCEQKFQgNvtVlKmUqmgUCginU6h Wq2i3W7D6/UiEAjA4/GgVqshl8spJmm32zAMA1JKzMzM4Nd//ddx0003wefz9TGkEALtdlsxTLct GIbxJwD+Kh6P/1xaSj+XTLK+vn4VgDsAXAL0mAJAH3MAQDKZxA9+8APce++9SKVScDgcfZID6KiF arUKwzAQDAYxNTWFSCSCfD6PSqWiLBohBJaWlmCz2SClRDqdRiqVQrvVIazL7VL3bDQ6Bkyz2YSU Ena7He12G3a7HZdd9k781m/9Ji677DI4nU6Fj6jiTEzClhJC/BGAryQSiY2i8m1sxtvdAb0lk8nL 19bWXgLwFLoMwsZZaBgGnE4npJQ4fvw4vvrVr+Kuu+5COp2GzWZDvV5HuVxWRAQ6zOL1euHz+ZRU qVQqqNfraDabsNlsqNVqqFarcDgcKJfLaDabCASCCAaDgBBotVqo12toNBqoVCpoNBoKIAMdZmm3 22i1Wjh79gzuvfdeZDKZvv7rEtBCZcaklP+3lHJhbW3t196kIX5d7edCkmQymWi73f56u93+n/Tf OfMAKNF+5swZJJNJJJNJPPfcczh9+jSKxSIAwDDsaLc75mu1WlUE9Hg8CIfDcLlcSKfTCofQQnG7 3ajX62i3JUKhIOx2O5LJJFqtFgKBABYXF5HNZtFoNCBlG6Svw+FAq9mEMAy0220AHavH5XJhx44d +NSnPoVDhw7B6XTC5XIhFArB5/PBMAy0Wh3NMkCqQAjxjBDiP8Tj8Scu/oi/tva2MkmxWDSq1eq/ lVJ+kzrdPMOklKjX61hbW8PKygqeeuopPPLIIyiVSohEIvB4PCgWi8jn8yiVSjAMQxGBeMVut8Nu tyMYDMLj8WBxcREA4HK54PP5MTm5DYFAAPl8HqlUCm63G4lEAsViEdlsFgCQzWbVc9rNJupdExno MEuz2dRAqgGfz4vp6WkEg0FUKhW4XC6Mjo7ine98J6655hpMTU31qUar1pU83xJC/K+JRKJ0scd/ q+1tY5JkMrlPCHGvlHKP/rs+aM1mE61WCysrK7jnnnvw/PPPo1qtqj+fzwcpJQqFAtrtNur1Brxe DyqVCjwej5rdDocTrVZHHYyNjcHj8WB5eRkAUKvVkEgksHPnTrjdbiwvL2NxcRH79u3DzMwMstks kskkbDYblpaWMD8/j3w+DwiBRtd30mq10Gg0lCprtZqwGTYEQyFEIhE0m03UajVIKREIBLB79268 //3vx4033ohQKKSkCjBQsqwYhvHv4/H4Dy4+JTZvbzmTlMtlUalUPi+l/FOgX6Xo4A4AKpUKXn75 ZTz55E/x8MM/7pqbBsbHx+B0OpHP55HL5eB0OpWF4nK5AXSkTzAYBAA0Gk2Uy6XucRc8Ho+6fzKZ VFJpbGwMQggYhoF8Po9wOIyJiQnY7XbUajVUKhWkUikcO3YM2WwWTqdT4RDik3qthlqtCofTCY/H C7fbjUAgAK/Xi2aziUqlCrfbhfHxcdxwww143/veh6mpqT71Y5YuneFQUuV/SSQSb6nb3/ZWPiyV SkWazea/SCn/rRnl01wFOpZDsVjE4uIivv/97+NnP/sZms0GWq0W3G4XxsbGMDMzo9TJxMQEvF4v 7HY7RkZGUK/X0Wq1MD4+DgDKaeb3++H1emEYhsIktVoNhUIB6+vritG2bdsGr9eL9fV1LC8vw+Px YHV1FZlMRjFaoVBAvV7vM7Pr9QZarSYg27A7nHC73bDZbGg0GnA6nXA4HMpXUywW8eqrr2JhYQHb t29HIpHoYw7z+HQ/XwHgts9//vPPf/nLX158K2gGvIVMkkwm320YxikA0+ZjUkpkMhkcPXoUzWYT jUYD9913H+6++24sLCygVqsiHo+jWCzC5/PB6XRiYmIC1WoVTqcTBw4cgMfjUYDU7/djaWkJdrsd kUgE9XodoVAIjUYD0WgU7XYbfr8f6XQGsVhU+UrW19fQaHQIPzY2Bp/Ph4WFBaRSKUgpleTyeDyQ UioPrs7chmHA7nDC6/UqwCqEQL1eRzQahdPpVOc1Gg0UCgUsLS3hwIEDCAaDG/woOrN0PyeEEJ/5 3d/93dSXvvSlZ94K2r0lTJJKpf43AH8PQOi+As6cZrOJo0eP4utf/zqefPJJnDt3Hg8++CAuXLiA cDiCdruFeDyO0dFRrK6uolqtwuv1olarIZ/PY9euXWg0GnA4HFhfX8fo6Cjq9TpisRiCwSCklIhE IsjlcigWi8qrGgwG0Ww2cdlll6FSqSCTySCdSqNYKKBYLGFkJIFMJoP19XXFvKVSCfl8Hj6fD4VC QQHkdruNRq2BdrsBm92BSDiCUDgEt9sNt9uNZrMJp9OJSCSiriOgbjQaWFxcxKWXXqoYkOMzyPqR Un7o85//fPzLX/7yP73Z9HtT/STr6+tGMpn8LoA/A3qgVMcedrsdDocD27Ztw8zMDE6dOoVHH30E tVoNLpcLrVYTY2Njylx1OJxYW1vD8vKyMnXT6bTyfHJW79ixA7FYDMViESMjIyrau7q6ikajgbm5 OayuriESiUBKiZ07d2LP7j2wOxzIZNI4e+Y0Tpw4gZGRETSbTeTzeVSrVbRaLZTLZSSTSQQCgT4T XUKi1ZKQso1Gs4F2u41AIICZmRlMTEwoz+3IyAhSqRSSySSq1Sqy2RxeeuklHDlypEMUw+iTIOZx 0875rWQyee/6+rrvzaTjm8YkyWTSbRjGjwF82up4q9VCPp/Hs88+i+9+97v44Q9/qAJrhmEgEolg dHRUMUskEgEAuN0uOJ1OlMtlBTJrNTq5qspl7vF4EI/HUa1WkUgklOczFAohnU7D6XRiaWkJ+Xxe YZFYPI7RkRE4HE7UajWcP38exUIBfr8f+Vxe9dswDOU3oevdZrMBog0hgHarhVarhWAwqGJFhw4d QjQaRalUQiwWw+7du2EYBjKZDHK5LNLpNI4cOYIzZ84o/w4ZxQrMaozzPwB4JJlMblDjF6vZ34yb rqyshA3DeFJKecDqeLPZRDabxdGjR3H33Xfj+PHjKBaLsNvtqFarqFQqCIfDCAQCaDQaysvpcrng cvVc46FQCLVaDevr6xBdr2ixWFRivVQqodUlmBAC5XIZoVAIFy5cgM/nQzqdxvz8PAqFAqanp1Gt VhGLx1EqV5DLZdGoN3Du/HlEIhG0Wy006nV4vF6USiU4HA7UajWFdVwuV6evspt70nXrB4NBuN1u VCoV7Ny5E2tr66hWqxgfH8fIyAhOnz6NVCoNr9eDRqOB+++/Hzt37lShAZrxm6ifd0kpf5xMJj8e j8dfutj0vOiSZGVlZcThcLxMBjGBLgBQjq2xsTHl/AJ6cRApO+KbrvULFy4gmUyiXq+rwWu1WnC5 XIpYhUJBSR0AKJVKSirV63VMTEwgn88jm83C4XAA6CQQpdNpJJPrWF1dVUQIhTpOt2arqRx0Lo8b pXK5o1akhNPpVO/TzVCD3++HPxBELJ6AYbMpaSml7KqVLAIBvwof+Hw+bNu2DXa7TUm0J554Ai+8 8EJfUHArEkUIsUtKeSSZTP7CxabpRWWSlZWVCYfD8SKAbVbH9ReUUmJ5eQXBYBB+v1+5szsDL5VK ATrMs7q6imw2q4jfaDTUd2aSFQoFle+xvr6uTNRO3KWuzqFfJRAIoNlsotlsYW1tDYZhoFTqODbD 4bCSTtVqFX6/H81mUzEeE5B0RiGD1mo1ddzj8SgGyOfzKBaLaLVaXeZMIpFIYN++fXC5XCiXy1hb W8Pjjz+uJog51mPFPNrYjksp708mk1dcTLpeNCaZn5+POxyOp4QQo1bH9RdtNps4fvw4HnzwX5RP g8k70WgULpdLZYblcnnFMIzaNhodn0kHrEpF3LW1NRUILJVKShVls1msr68rFcS0RiEMJVUY4KvV aoo5g8GgcqS53W54vV6FScggNhuz0AT8fj9cLpdiJCklVlZWUCqVUS6XUavVVNypWq1hdXUVa2tr 8Hq9mJmZUab4E088geeee05Fj3VmoPrhmFqon1EA/5hMJi1V/etpF4VJ5ubmfH6//xEAU2YbX5ce RO2FQgHz8/NIp9PI5/MqTB8IBBCLxRAOh1U8pFarolKpQgiBXC6HSqWq7iNlxxtJZmk2m/B6vSpZ qFwuo1Qqo1QqYWlpSflIenkoVTidLlSrVWXess+1Wg1OpxM+nw9utxvhcBjxeBxut1s5xjoOuQ5o dTodKnXR7Xaj0WjA6/XCZrMhlUqiVqspyVYqlVEsdpxxy8vLSKVSKmmp1Wphbm4Od955J1ZXVxWj ABslsfk37diUlPKHyWRy/GLQ96IwSTgcvgfAQTO40pNx2EigYDCIT3ziE5iamoLP54PP17HixsbG 4Pf7Oy7ubii/VCoqvV6tVmCzGRDCQC6Xhd1u696zkx0GQM3kRqOBZrOBarWKtbU1lMtl+P1+1Ot1 pbKkbCumq9frCi8xtSASiXSwht+PaDSKUCik3Ox+vx9CSASDQYyPjyuvr9PZ8baS+E6nU0nAdrsN l8upApflchmZTAaVSgV2u12pwOeeew533303gEGu+g2Zbj2iGgJCiAMA/p9UKvWGQy9v2Jl2bn7p +y6n/VazS9n83/xSdrsd4XAYP/3pT1EsFlWOB7PF8vk8XC6XSiMkAO2kCrrg9/tQqVSUuiiVyioB uVAoKGdXsViE3+9HpVJRsRZKk0qlotzk7CO/+/1+hMOd7DWvt8PE9OaSWeja93q9CIVC6v6UIjR5 AfTlrEgpFb4RQqhsfDrl6MpfW1vDoUOHlI9l0JhubIqpZgDs+9KXvvTDN0LjN2QCz56d/2LQ7/6E +XfdYwhsnAm2LvJ/7LHH8Pzzz2N8fBwTExM4deqUirjqycoEpgzHO53ObrCsopKOK5UKAgG/Mntd LhfW1tZQr9dRrVYBAJlMBg6HQ8VfVldXVRIT4ylUIeFwR2Iw3uJ2u7sYpAOwa7UabDabwklerweG YSAejys/SiwWg9frxdraGux2u4r58D0IjKWUKBZLCAYDAKCeubq6in/4h3/AJZdcohjISuWYJ6Cp fWJ9ff2VRCLxhddL59fNJP/06AufHIn6f89KDOoeVTPQokSo1WpYWlpCq9VCNptFIpFANBpFPp9X g0dXOEPxjUZDBc3oYWUUuFIpw+fzKt8CTWNaNjabTS3IqlZrcLmcCIXCMAyhcEbH/A0jEOhIEUoL KSU8Ho8iKNVds9mE3+9HtVrt9KlaU+Yx3e2BQACBQKDr4PPC6/UqydlutxXDM53AbrcrCWkYBp55 5hkcP34chw4dGohDrL6bpMzvJZPJE/F4/O9eD61fF5P8wV/cu//wOyb/Ctjo5BmmO4UQKJVKWFlZ wYsvvojnnvuZMjWFEBgfH1c5p8xIl1KiJVto1BuQbQmXy6Wy1Gih0EzVw/a0bgCpRDyvcTh6uMHh cMDr9SqJFYvFMDo6ikQiAY/Ho/CK2+1WDN9sNtBuy24OS12pi2qlAgggnU5jZGQEhUIBuVwOQMdE LhTyCrcw/VEIoRiNubZMhZRSIpVK4Z//+Z9x8ODBIeqlf7zNKRfd/3+VTCafj8fjs6+V3q+LSf79 J6/5uhDCZyX6tE5tUDck4okTJ3DPPfcgn8/B7/cjEAio2R8MBpHNZpU/wO12d3JW0YBhE0rs0kR2 OGwKINvtvYVTxWKxC5qhpBGJ2slI8yEQCKgVebRMgsEgwuEwYrGYwiq6j0KfzQSiupSzOxxot9tY WFjoxpocSKVSEELA5/OpyDWAbspk53q73aHu6XQ6u2C9A/5feOEF5VPhJDCrdH3cBzjdfEKIrwO4 8bXS+zUzydm5xT8WQtwwLO2u26lB5hmy2SxyuZzK6qIXlSYns7zq9Z67m0k5BKccEJvNhmq1qrBE s9lSlo3H41Wzn9iFQTZaJwz+CSHg8XgQjUYVSCUxqRp0TECm7hC4Y/b6fD5lukspsbq6CgDwer1I pVKw2+0q+Yg5KFJK5QAUApqPBcoRuLCwgGeffRYf/ehH+/phlizm6LH5HCnlDclk8o/j8fjvvxaa vyYm+dEjL1wfCXq+YPHwDZ0FNlo5rVYLyWQS6+vrXSdURxrQOVWv1+H1elGpVBTKNy9JoPVjGDY0 GnUVSSZ2oJTpOOc88Hg6aoKBOLvdDr/fjz179kAIgbGxMRXNdTqdCAQC6jwCaEpA3ptE4pqajind kzBkfvpraM4zgBmJRJTq47WhUEilWfI34rJ8Po9nnnkGH/zgB9UYW0kLfeyHANwvpFKpB2Ox2KNb pftrYpKrDk3+d/ODBzVd5ejiOpFIYMeOHXj44Ydht9tU4k1n1grY7R1PZjAYVKYgg2QM3nX8H00Y RodBWq0WnE6XeoYumRg9jkQicLlcSr3E43Fl4oZCIQAdqUSC6u/Az5RKujTRnyelVMB6amoK7XYb J06cUFHtdruNdDqNTCajclsZeJRSwufzqecQ4FMqraysKBfBoHE2/zaITlLK/w7gyqEE1NqWmeT8 wvIXhBDvGmTNmDqx4Xqaj53lDRHs3bsX1WoVc3NzaDSaqFar3QVTBTQaDdRqNfh8PuXqDofDKJVK ikEYAwEAm82uoqg2mwNeby/gxsRnLmcQQiAajarVeG63W0kNqiMSigSiVcPnUVqQaSg5+N40s+Px OOLxOM6fP6+kJACVR+LxeFCtdkxphgKortgn4iAuPfX5fH0Wo5kOZhVkxlHd4+9Kp9NfiEajX9wK 7bfEJN/8+8f2BnyuPza72K1wh1VHzT4Tn8+Lq666Cg888ICyDnK5zpKFTqJRR7TTiUaHFVMWq9Wq WpZJ4NcJkFXgdnciw6FQCGNjY0gkEggEAn2YgZiDzOByufr6x8QlOr3ILPr78DfdCadbZEJ08moT iU52WyaTUYE/n8+HYrGoJFij0UA4HEalUlFZ9WREAnimNczMzGzoD/tkRQedRvo57Xb7j1Op1N/H YrHTm9F/S0xy23vf8UcWD1EDpOdlknmsEDj/j4+PI5PJYHR0FKdOnUK5XFbMQtMT6ITybTYbHA6H WuHfbrdV2J3P1xnT6/UqRmANkUgkAq/Xq3JROPB8D5q5jLyavZv6kge+I89hGiL7QIxCyeJwOJT/ Z35+XmEoWj3j4+NKQtJJR3VH6dYJTZSwurq6QQVyXDdT/2y66gfwRwB+ebNrNmWSp46evgWA8qrq s2cQQLUSfToTxWIxTE1NIhwOIxwOI51OK9OPOSGcxS6XSy1L8Pv9cDqdaLVaiMVifV5ZLnSiCgkE AggGg4hGo8p9TiuCRDd7MYkDzOKZcR39vXXwqqsmXVUBHfVBi8XlciGfzysrp7MwvaCZ/Z0+0lRn wjSxGast6c8ZZPaax97KnyWE+EQymfx2PB5/4A0xyd6Z+H/Svw/iZCumsRJ1FMMjI6PYtWsXHnjg AYULeI/OEk0HIpFOYI3YJBwOK11Nka/fk4SgKU21QslBHc/nUKrofhQdlPL++nkkDO/TS5SS6piu BsnI9MrSE2yz2RAIBFRsyel0olqt9hGUyd26V1Y3//XPZvViluh6M0n6/wTg9TPJK+cu3CaEuEFX LYNAqZk5rBiJ36kOpJQoFotKBDOOIoQBr9ejXNqjo6MqGutwOPrEO6+j2UqGY/RVB25MZdQz4fSZ b2YS9ptin4zEpp/PY5Q6XJBOc55eZD67VCohHo/D5/Mhny/A7/cptQugT4KQSSlJzAQ3fzbTw4om 2rEb0un0bdFodGAQcCiTREPe39FvOohBBulDs2oyi7wLFy6oojAAEI1G1XoV5nEwLE9nmMPhUHEN Mgg/M50RgIrFUG2xr1QP5kHTJQH9E7yW0oC+GzIW70OgC/Qcb7lcDo1GA+VyGZVKRWELznJaaEyE 4pKLWq2mzuN92S+W8rLCe1ZSxIpGPG5qvwNgIJMMzCeZPbvwEQDXWJhP6sH8XWcKvZkRt/k3elsJ HpkC2Ck0E1B/jHfwj7OM3+mw0i0NEpCZb3qdNAAb1IZ+T926oTSi1WNWoWQkuuDJYEIIlSZA4Amg TzJQ0jgcDpRKZdhsNvj9fsWQBO7sO5ndbAjo9LHCg/p3K4tHSnlNKpX6yCBeGMgkozH/b3buYk3s ragd/Vy9Y+TmSCSiiOt2u9UyTLfbDY/Hg2AwqIjUW4zd6ns2Z6558Kxc6ZQAlFz8rJuU+v11vQ50 QKjOiGZMQOcXPaashlAsllT+CIlNrMQUiHa7pRia2InPJJOXu4nYwybfZpjFijbd9psbbtptlkzy 0uy5q4QQtwCAgDXh9d+GmV+6aahzud1ux/bt29VsIeL3+/3weDzqT1+UTdzAmQugr8id7qMgQ+h9 JaFoOfCz7ixjagHXvhCsshEY6yKdRCVYZSS7Xq8jk8kgn8/14RWCULvd3pdcrTM8LRz+poNkqzEf 9PsgWpnpKYS4JZ1OX2V1rSUmmRoLf6b3dAysPWD1wCEASf3Glx4dHVWmIFUGxTZxBwCVT0LCcUYT H5ifo0su3VykBOO1+v1JHOIeShsSU881pcOLTQf2JDqXeZARmf9C64Y5tLwf82J1takzvc1mQzQa 3cD8+rjq769PSCsGMaun7vfPAHjafO8NkuTI4y8GpZS/qjgTclMu1Ttq1Sm98+rBhqFC8mQKEgPo ObBoDen1U3m9PjCc2RxY/tHFr6cI8hm69NCZgmUmmOPB59DK0RmY+ILSiLGfbDarmLvV6gUI9dKd ZDYyFqWlHn2WshclHh0dVcDc3HR1zu+vdfIC+NVUKhU033uDJDn8jqlPW/0+zLKxssetkLfeeQJV LujWO88UQUoKYhLiEjYd9PJ6HZ/ofdN9K2QYq/OBHiOR6LqVoTezM4sMwwqNxWKxax01+wCoDnB1 QEqrh8zBxCS6BsbGxizHVB9zfYzN9DG/p35d913sQohPA/iqftwKk2zIWdWblTUzCAxZdUYfVJfL hcnJScUEQE/c04NqheyJS3QvKK/VLRtKITrCuK6m1WopJ1Un0dnbh4HIIOwX/3NG60xrJhD74fP5 lCTRx4J9I4Ppjjyat0DPp8NzPR4Ppqam1DiYx9RqwloxlBW21H+XUm6gf5/EOHZ8bj+Aa60kg8XN LMWZeWZxYKwYyeFwYGSEa7l63E8JwQCfPrOZ6NNsNlWQjxiFyUp8rp4fy9nocDj61hNzMEkoqifz YPN9zLjGDI51PKU7/hjjITDWHXkAVLVpIYRagkEVSOakA1J/3iCrZbPvZlpq97s2lUrtj8ViKs2x j0lmJsK/OOiGVh2zambRZpYeZsZzuZxd/0P/9VyWwFxUznBaQcQBpVKpj+g6RuBz9TxWHazq+Rok mB7c05mC4p/n0GfCZ9KbqpvGVJl2u0Pl4PJelAi6OU4G0cdSt6B0LKWPqU5oKzoNwpJ8Nwsa/yKA /8bvZuxxq36D1/JAM/NYfTZfy9lNkUxVQbOYOpomry7m9cqFujWgB950HwvQi8foXlRKFxKdZcCt BpD905mLjR5VAMqE7qnQXuadDpB1s1eXbJSUHcbrT7k0j7e5bYYPrWhm8dutsGKSV88vTQG4Wn+Q HrAaRmz9AVbfrbid9yGRzKYdI8FcDqFHfPXcUM4+3o+znARgJr2uyvTF6WRS3T8BQJnj+u960pEV YSgBdZVEa4TMqltZPdzRn3ZBJjREj0mnp6fh9/s39NPKBW8eY3Oz0gT1NXTWAAAgAElEQVQm2l6d TqenotHoAqAxSSToeb/VzTczpTZjmM04OB6PIxAI9MUkOEuJKXSC09/g9XbW2HBxOZ+nWy/0OTCu Q5ygWz4shsOBp5rRE5H0as96PgqlR7PZVCF+Xc2xgI2eYcb365wjIQQgZS/BicSnQ84JCa/Xg6uu ugpOp1OB9a3QY5D1o587BKu8H8C3gH51c/Ogmw+62VY7aIWu+X1kZASxWAyLixf6dLYQQpX5phXC hGeqIaoG3UdiGIZaoUdpoD+TIp+/85xSqYRisajWAROU0gwF+k1uqg/doUezlkzudDoRj8fRbksl zQBoUtFQeb6yK0EoecbHxzE6OopsNgu73Y53vOMdfclPVupwmDExyPQ1g3Lt+pthZhIhxPXmmw4z lzZjAnPnzd/5kmQEKXv+Ct1akVKqGUuswopH+kylyiDO0QdQd7ABUGkEOlOyTCfLeuvvpJuxung3 x36YVcZlpoFAQJnf5XJJqT4zs9kMG2r1mnrGwYMH8alPfUpVf8xms5iamrJUK1bjrqu/QZJeP28A ja7nZzsALFxYuQSAZZkCK0BqPj6ok4M6BvQ8plxFp9dE5QIqJgWTSThzeT0BJ/9055O5b7q7W88P IRFZeI/PB3qLp5gkxOfqM5oMWKvVUCqVlPpiKVFm0q2vr6v3I8NSNTmcDrRlB1SPjo7itttuw6WX Xoq1tTV4PB6V8W8ec50+g2gxBJwO/Q5gPJVKXRKLxU7YAcDvdV09CDuYH2rV0WHHNusME5yPHTsG AH3OL85G5pewJAV9HUKIPjzCmUki6M4uc5ifIl/3uQghVBa+bgm1251kaVoXOjjme9hsNlVEhwnX TH3Q708pwmyzdrsNw9bBOWNjY/iVX/kVXHvttaqMaD6fh81mw+LiIvbv3285pnp7LRpAv5cZh3Z/ uxpAh0mEEFfqF22GSazM22HNrBN16cQKzHoRXMMw1GYBLJWlu+h1AnDgqW54397anF5chcRvtztl LpiATDXAhB99hR2xBtVTOBxWfbLb7SiXy8phx2z4cDisHH1utxuhUAjxeByrq6uqDonOrEyuet/7 3ocbb7wRNpsNqVQKJ0+ehMPhQDgcRiqVUiW8NgOkZgYw4xcpJQQEpObANOPB7rVXAriDmORyndiD TFl+3gyDbOUF2Gw2Gy655BJMTk6qCoxMPGK6ItUKnVM0HRlV1f0guhWiu7tZFqtYLCKdTmNlZaXP E8t0Q6fTqdz0TAvorM0tKfzBxWTERdxFy+/391k/tKR8Ph8SiQRCoRAKhSKk7OXPCiEwMjKCK6+8 ErfccgvsdjtSqRRefPFFrK6uYu/evaqcRSqV6hbO6Y/DDJImFkTvXQup0kD4u/lcAJcDPeB6aCil TW0YGBrUrIAWX2Tv3r249dZb8eijj4K+BT3PhKJd34hIz7fQTVqaksQ87XZnCcbq6ipSqRSy2SyO Hz+uQvWURswvdTqdmJychBBCZciRiej9rdfrKBQKKJfL6nqWJNeXfLIPrCk7NjaGTCbTFyF2OByY nJzENddcg3g8jnQ6jRMnTmBpaQk7duxQS0KYe0ILTPcMbzbW/M3s1jALBgtpfwgA7KtryV0AvNhi G2bO6scHIWvzSxmGgZGREVx77bWYn59XlgE9jqVSSakCOs0oaZgHy1V+BJ064+iBNA4sl1uwBES7 3VaFecfGxhAKhSClxMjICCKRSF/QkIX2qtUqisUiCoWCuj+lDq2der0Ot9utVCSXqwK9uJK+GXW1 WsX8/DzOnz+PHTt2YGZmRoFblr4oFotq7fIgSaIzgtW4mzXGEH+JN5PJ7LK7nPa9w0wrq4ebOzKI SzdrOsCcmJjAFVdcoWY5c0Kz2Syy2WxfthjLVTDbPBaLIZFIKJNYZxI9600Ioa6j2mLtEt3slVIq 64oEplQiiKUOJ7F5LvGMPvBUYXq4gQzq9/uxc+dOpWbW19cxPj6OgwcPwu12K5zE+vR6xv8wgGqm pRVA3YzW3WN77QB26RdsdtEgSWGFY6w6ZuqAYjKn04l9+/bh5ZdfxunTnZWHrVan3il9C7ReCoUC lpeXsbS0hJmZGbXUgBsO6Cl//MxZzO/cSKBYLCKVSmFlZQX5fF6pAJ/Pj0gkjNHRUUxOTqqSFIZh qGwzwzDg9/sBQEkYvqs5ZsQ6bDxGr+7Y2BjGxsZQLBZVufOxsTHlEPT7/aqEFifAZuNtnrD6MT3U MswU1q7dZRdCTG9mRw9jmEGE1/9vdi8OHEtwJ5NJ2O12Va2IJq+u66luyAj5fF4NrH4epQrFPNVE KpXChQsXsLi4iLW1NeULYYnvYrGIarWCc+fO4eTJWSQScWzbtg1jY2N9sSIGG9kPMgvQCwtQTXUs Np+yyFwuF7Zt2wbDMBRWWV5exvr6OlqtFnbu3Km2aOHKRj3KbJbqw+inM68VFhnSpu0AtlmpjGEE 1Zlh0DmbWT3soP6faoGqIBgMKgJQXLPWqr42R88f4RoX7vjJY9VqFaVSCdlsFplMBktLS1hYWFCF cpxOF2ZmpjE2NoYHH3wQmUwGpVIJuVwOXq8X2WxGFeYloGSZCfaf/SYg57jSyunUgw1icbFXLJjW EdUqHYvJZFKpU9ambbc6TGiI/sX6m1mlVhBhM6bSrttml1KODbrY/EAr/8lmDzKfbzUL2Gw2G0Kh kMp75eyz2WxIJpOYm5tTO3cCUGBwcnISfr8fo6NjmJqaVLVAyCz0o+jlu1miKhwOQQiBeDyOa6+9 Fo1GA08//TT27duH5eVlTE5OYmFhAQcPHsTKygrOnz+vCuBt3769D8uQKFQluh+HRfii0Wif5cUq kiyHHolEMDk52ZdJxwI9zVYTPrsPwhBoDwGs5vEeRo9B9NMYbMwOIK7/uJUbDjuui7Tu4wBsDSgZ hoHR0VHs2LEDAFRkdXZ2FufOnetWQ/TizJnTygpyu92q1sfs7Cz27t2L97znPaqykXnhFs1e1l4V QqBarapynNFoFNdddx3OnDmDRCKBWq2GQ4cOYffu3chkMsoM5hZwXMdL6UG/Ds14HQg3m01Eo1FV SI8xISGEwjajo6PYs2cPWq2W2jyJ41av12HYDDWqm9FoEG4xY0Wz6jFZPXE7gLCZyIMusHqguW3s WCcUbr6nlT5l5hn9E8ViEceOHcPp06dx4MABXH755XjggQfgcrkwMTGhwCN9KefPn0exWFQRVH3f O0odxoP279+PRqOB06dPw+fzoV6vI5fLIRgM4uqrr4bP1ykmHI/HEQwGUSqVMD09DZ/Ph2g0iomJ CSUtmClH/EM/DX0bbJSUiURClaGgQ29kZKSvkDAj0Lrrv91uK2xl1YZJe7NhshUzuPs9bAcQ0G+u 5z3oRDUzjRXRzSaX+aFmBjF/Zh2SlZUVxONxLC8v4/z586p6tMPhwNjYGNLpNC6//HKsr3fqr3En CO4QfvbsWRw+fFh5bAkcWbWZ6YysadZqtZREoNt83759KnRPk3zbtm2qPDjNaKo088q/QX4JITql SBcWFgD0Ep5pohOTsNFjTMlJN4D53mYDYdBnncZWxy00SsAuhPCYD1pxmk7UQdLF/DCrewyTSIZh YGpqCgBQKBSU+7tYLGJlZQUHDhzATTfdBKfThbNnz6LdbiMa7Ti7ksmU2haFyUm8J933rFPCgWb1 Izrs+DwSjPEXvSAfrapwOKz8JPoSVDY9vdEs5oPBIPbv36+sOOIWlrpiDTUA8Pl8aDY7FbE5UQZN Mn0SWuSHWNLXTB8LunjsABzmC82Z5IMIPUjHWZ1n1Qmr57IOSalUQqVSUU4kwzCQTqfhcrlx6NA7 EI/HlKc1n8/D7/ersuDhcFjldejZZsQkQC/9j8Tm4u319fW+CgacxXpMh8sw2Hd9/S7zXqSUfQvi +a709OprnRmMdLlcCqiXSiW0253qBKlUCh6Ppy9ONYjAwyzUrVqjJjo67ACMQaqBF+jMMAx8DuLw YR01f2dBvGw2CymlykiLRqMol8tYXV2Bw+HA1NQUnM7OBtIU1wBUMI0zFOgt4yTz6xUKuDidnk1d dfA4VQpLbekVk8zin+Ok57AC6Isu8760wur1OkqlknKW0dVPNUd1a06G0gk8yLQ1j/EQ7GF5TwCG HUBbCLHpbhVb8aGYz7U6fzMrithheXlZ7aXLpCACWi6i4vJNh8OBeDyuynnqq/+k7FUY4MszJ4VE IRNQ0vBa3QdiLn2hr7rjffQlGQSwQC9LX09Z0DPpWMOk1Wohk8lgamoKwWBQRcU9Ho/al9A8hkNM V0sT14xHzM1CCLTtABqw2NJEf/gwe9sKUQ/CIOYODLonE3QI5PTMee5ARScbLRauo6HZTGtAXxim 1yADoPJJObvpkme2HPEM3ejsj26WqsQho7fuR5dELOrLOJG+jJO4heZwoVDA1NQURkZGFC7hbl16 iU8rY8FqXK3G17xQbpBk0u7fsAOoAHBzUK3UySBLx/ygYVJimKml/073PL2v+kJyqhBd9FP/MwDI FEd9KYOOTUhAPXBHq0Evb8Fr9fRIfTaaJ5HZOuR4UuVQcrRanc0U9BUBdJrt3LkTO3bsUJti6ymc TAa3Gner75sZIlthlG6r2AEUpJT9SZQDCKxbLOYHWHXKqsNmZjFLIbvdrvbxpSVBonMfPJ/Pp1SK PnMBqGqGumg1g2tKGDKWOV+WzKSXuDBbC2Q6YhLmwurrg8iclCZqtaAh+vrFrDaHw6EwFp1vzGKL x+ObSmjz52F0NONLK1p0jxXsALJCiGnzxVZgdSuE5/fNpIuZo/WZqKf/MemHATG/36/UAZseWGM6 IImnP98cQSWj0H1OqaWbtcQbOr7hPfTVd2aTl5KDiUKMZNOcNRfyo2mrdrvQlnR6PB6MjIxsGL9B 2MJMo2E4ZBDw1b5n7QCS+ktbSQSdYaxubiaGTpBBnbK6BxuTihjv4KBRLdDi0XMruDpOCKFSD4kr eJ7+LM54KaXCMXoIn95SnqOfz4HX0yX5PjabTe23x5QCXk/cQinFhWZkSiZQ6eNTq9UwMTFhWZdk EKNYWSvmY4M0gsU9knYAK1Y3NxPT6vgwc2qA6NrM3AIAlRjMgvv6YisCWf3FKNoZeOP5unVCRqF+ J4F1y4SqhQxIRjAPpDnzzexI43tRkgDoq4rg9XpV0jTQXymJz6EEikajiEajG2igT+DX2qwm9yCJ IoRYMYQQF3iS+UabPWgQAAU2uqatzjEPDDvocDgUeCUeIW7QV93zehKdDKBbLbqPpKcuegPB4zpG 0Etp6s4r3ZTWGYOfiT/0nbqq1SpazZZyrPH9OD5kXkoqOvWSySS8Xi+mp6f74jebAdNh9NLfw0yP QcBWSnnBkFLOmwnG73pOxFY4dth5Vh0xN92MjMViqg8ElFbP09UHE5n15ByKc32GVKs1VceM5qdO aPaBf3w2389MNP7nppDcx4bJQs1WU0k3RqV1q41SgykDzFvZuXPnhlRIK6w3TO1YYcdBqkXHI9qx eTuAVwaByEEE2WrTr9nMicPnUuSHw+G+Ff/8nffs7IzVwR6s/UH1QalDB5ZZGrBv+toczm4Shf3R GYJ/+ky0GlgAyqwFelub8DwyPVUQs+9feukllMtlHD58GAcOHNjAIPq4DhtrqzEdgjk2SCf9vxDi FbsQ4jRPtLqh1WerB+gdslInVvfTrzE3MgnNR93BxgGm6CYoZXxD95GY760v12TMJpvNKutJ30BR HwvdnGYjs1AK0fVO5qMJqy8PYYRXSqmYpFqtYmVlBU8//TSklPjgBz+4oVqC3qwkghW2s8KVVjTd pJ02gsHgKwDK5pP1RUa8qd4h84CZOz/oxYZ91l/G6/UiFospKaHnZdAVTsxCa4iqxlwThAQhwfQF 5UJ0ko647kb3e/QwTM8a0tUS1yeTMXTvKtUfI9DsE30vAJRV02w2kU6nsbS0hEqlsmHczCrfavzN Y7phcmpLsawsTKsmhCiHQqFXuPbvJaub63EIK0Ja/WaFmq1eZNhvQCfQFw6HUSgUVFxDV11kAH21 XLvdVutwdfygA0b6WPhc3USmGtPfRQe2+nk60+i7UeiShAxJsM3j7L+uzrgGudFo9O1map6cVs1K MmyQFALAALA7RKq8BPSqLx7VL96MgHwBc0fNbZDJy/OH6UkhhNojN5PJqHKXfL5u7bhcLjWj+QwS 0jwTaUpTquj9Ij4go+hmLv/T90FJUq1W1TWMJJNxmLVGaaZLJf2e3KiAn5PJ5MCJOWicB43vMDpZ qShTOwr0mOTZQWcNIvQw9WOliqxeZFDn2QKBgNpNisQAertd6ZYIXzabzSrPKwAVWKtWq8jn85ib m0MqldqwwEl3oplNYn3tsRl/0D9TrVbVJkcM9et7/Omqz0qN6UtYw+HwBr/LsLEzj/kgVTTod6vj 3fF8FuitBX7K8skDiDfs2Ga6zgwAdbxj7jRrzafTaRSLRYTD4Q3ncWD9/s4GSlwQTld5rVZDNpvF 7OwsHn30USwuLmLHjh1473vfi8nJSWU56dYUGYN+Fj5TB6rEI/SsMihHXKPHlij1qtVqn3cW6JVE J+NzY2sd5FqNrT52+lhY4cRhjDXMCEGXL+wAEAwGT+Tz+WUA4zqSH3ZDq98GWT9WoEt/6UH3cLvd KoZTLpdRKpVUSQodZzAhmvkl6+vryh/RanU2X3766afh8Xiwf/9+BAIBtayCu4iGQiFFJL1KIvuk e2z1P6YvcCGZOfZC5iJW0RuXU1BF2WydXT0fe+xxuFwuTE9Pqww4q/HWwyhWYz9ovPXPg9SYlHI5 EomcAPprpj0K4BODzKpNOG5o583NLG0GvRwz3Ofn51VsRg+MCSHU4OfzeSwsLODcuXOw2Wy49NJL sXfvXpWHunfvXiUZKpUK0uk0yuUyotGoKu3ApheY4TOoIihNdAapVCpqJ06GDPieDBSSoXULiRhK z1ir1Wq477778OKLL+Dyyy/Hddddhz179vSBX/3+gwhvlrbm66wkuf7dMIxHeb7OJA/BomS4mSEG zXr9mBWw3cTUsjxus9kQj8dVTKZYLCpvJr2WxBzFYhHlchm5XE7VP0smk9ixYwccDge2b9+OQCCg wCEtHe7VpwcKOatLpVKfKwDoqRoppQrQEciy/5RC7B8ZgIxHfKWXMTeM3rrhtbVVLCzMY3Z2FidO nMBHPvIRvPvd71bBv2FSXpfcuhq3muRWmESjx0M8Xy+sd8TMFFY3ttJ5Vv/NnR/E5Vb31DqKeDwO oFNWm9ue6MSmS1t3glFiZDIZRKNRhMNhBAIBxGIxdX/GhPQEJXMqgV4/TQ8EEqxK2Z+iSGbQE5Z1 yaJjHYJevoPNZqCzDX3nt079tZIyjePxOA4dOtRnvuvNSq3rx6ywoFXTrjvCD2qKBAKBBSmlJYDV OzBI7ehtK6rG6t5WHE68kMvl1HpezkImEHd2/+yA10gkosps6k4slq1iDEUPsukpAQSh+ip+xlR0 XKJbT1JK5dRjiXOu9KMUohTR/3prl40u0OUWbzaFjXK5HI4fP46zZ8+iWq0OIuimBoaVVBmiJZ4K h8ML/GKYbnbvVh9qZYebVZFZLw6616BnCtErvEfG4Ip/gj7WLhGi41cZGRnB2NgYwuEwotEoEokE /H5/386aZvFMnEBC6uYtz6GlROJy4HU1pWfQ6RiCFhPvyb7k83mUyxU4HE6VT+J0umCz9XJn2l2J uLa21reeSB+vYbQaNNZsZtO5e869+jmG6YK79Yu38hDzA80PHqZSttJsNhu2b9+u1t0QINK0JeHb 7c4SyFgshunpaezcuRPbtm1DIpFQu4RS/+tqiX0jExAn0LeiWyZ6JhnQv2UsnXN6JFuXjjp+IX7q SIYOYZiu6Xa7FMO4XC5IdKQVqy9xi1yrZh5rqzEf5ifR2t36l75FI8FgcDafzz+B7nYmel7nMOBp 7uAgNaPfa1gzg+DJyUnEYjGcO3cOq6uratlEoVBQ50gp1aIpzmq/36/yUgj66LbXJYgORok5eJzS gr+biU8pQbOXKQC6iNfLY5XLZeTz+T41qXt/pZSqKI/P54eUBYyOjuJd73oX2u3OYq1YLGYZcOQ4 62M9CFearViNhk+Ew+FZ/Z4bdsgSQtwppbzWTEw91qADPCtzeDPCax3a9BqgExHet28fTp8+jZMn Typm0EPxJCBzNtxuN4LBoFpyEQgE1HvoqYe6K58SSv+j6cqVd6z6zJ2xuH+eEEIFHHk/qhqqSf6v VCpqyQQz6fT0xGAwqNYnCyHw3ve+F3v37kU2m0Wj0cDq6mrfRtrmRG3dItNrxVlNUAuMeKeZDlbb qP0NgP/LfMxCb22JKazOt/rdPAP0lzAMA+Pj44jFYshkMnjuuecQDndKVa2urqpcDW6M6HK5kM1m kU6nUSgUEIlE4PF4IEQv4svZrKuBXC6n+sj1PeFwGLt371ZlKFZWVlAoFNTA60FDSh09P5ZAl4zB YGWz2ewrU0Fi63sBNxoN7N+/H5/+9Kf7LK5nnnkGd911FxwOh9omVwihnh0KhRCNRrF3715ceeWV ysQfZNlodGwC+JtNmSQYDObz+fx3RGdnx6FOGDPzmDuwmYrazByjvl9aWkK1WsWhQ4ewfft2zM3N 4eTJk2rpxYULF5BMJrGwsACbzYZqtYpQKIRAIKAsHnpuySS5XE5ZTCxcNzIygoMHDyIejyvTmglQ 3L6VJTX53awqqFbYd0oO/hUKBQW8qaYo+cgoHo9HvcNnP/tZ7N69W1U7YArF8vIyTp86pfli7OAe zmS2WCyG97///fid3/kdVQzQaoJrv30nHA7nN2WS7kXfklJ+xooZzAQ2P2hYEwLgZYPMMPMzyuUy lpaWUCgU4PV6MT4+jp07d2J9fR3r6+tIJBKo1+tYXl7uLrKWSKWSOHfunCqX1akj4oQQnQXpsVgM gUBArQOOx+OYnJxUFRx1M7Ver6sCfGNjY8rXwsI3jBPpGEdPg+TWr7lcDul0Gvl8vitVKnA6HWos GDFmRp1hGLj11ltx1VVXbZBaIyMjeMc73oFjzz8Pm90OITieAlJ2Y0DuzoqCe+65BzfccAOuu+46 pZ6tJm/3t29Z0c2SSQKBwNP5fP4BKeUt5hvxpfQHmUGplf3dO3fj/awaryuVSqqaczweVymLsVgM 5XIZi4uLal2Ly+XC+Pg4pqenVNmsQCCASCSiyn1TlwMd9zuljZ5eyKgtLZFqtYqRkREkEgl4vV7l APN4PMpM1tfpULTTRE+lUigWi8hkMiiXyyotQL+GNeC4lOT666/HzTffrPJdCJgNo7Ozx+HDh3H/ /fejVCzCMISSJI1GA5BS7Y1TKBRw9OhR3HDDDZv5rx4IhUIb9gQeyCTd9lUhxC2DnGdmBuHxrVpD pg5ueAbvwZKcFMskit1uRyQSUakEmUwGrVYLk5OTmJycVFYDALUDRSgUUslAdHTxPHN6AABljbBW LL2dethfN6V5DaPDLOKXyWSQy+WUad1uS7jdLoVFuBCepTQOHDiAa665RsWQOD5kQIfDgX379uHK K6/EY4891lfjREqosergqip+9rPnUC6XN+Tvcpy7Y923zaveLLehB4BgMHgPgCe3Qlyz42yQOBt0 /bDj+pobAjOdSE6nEwcPHsSHP/zhbpWjV5DNZgFAqRZWMGJFRa6go2OL0VvdE9put5X1QjMa6O3d S9c5l2XS70GAmkqlkE6nsba2pvw5BMpOZ2+XDS7I4oKzd77znbj22mv7pJRusfAvGo3illtuwejo aF/Kpb7Avtloot1q44UXX8Tx48eVBDUbClLKJ0Oh0D2D6DyQSbrtz3hTM+GtbHQz8bfi3Bn2O9CZ FYlEApVKpc+s01fHORwOXHrppbjtttvgcjlx6tRpJJNJlbcqRKfWRzKZVITlNiF6MpMuGdrtTp0Q Fpshc+jpialUSjn3yISFQgHZbBa5XA7r6+uqOB4ZzjB664joxqd19Au/8As4fPiwUn3mSUgGoXo6 ePAg3v3ud6txILC12+2oVWtoyzaEYSC5nsSdd96pqiqYrUchxJ8NY4KhTBIMBn8I4BGdmMOcYTrj 6J+34j4edKxWqyGXy6nYC9Bbw6vnfTidTuzatQsf+MAH4HDYcfLkSSwsLKgtQCqViqoaxK3UaGXo GfTsB60eViMSQqj0AOIVentZ+rNcLiOZTGJtbQ1ra2sol8toNBpIp9OKWZ3OnsriQjK73Y6rrroK V111VV+xYrOEJoMwkBgOh3H99df3bZvCZKVGU9shtdXGAw88gAcffNBquegjXToPbMMwCdufCCFu GOQM42czA+niTD/HvHTS3MxMWCwWcfLkSczNzaltT+l/oG+CwTiv14u9e/ciGo3iySefxNLSEmq1 GqLRqMIgXLgtRG8JBlUYn60vGdW3W6vVakilUspiqdVqyp9CdcP0RaDDaGQQfWkFpZXD4UAkEsFN N92Ew4cP9zEImxn3sC/0Ih88eBC/9Eu/hHvvvQ8ulxvcGdSc3plOp/G1r30NBw8exPT0tJI+Qog/ 2YwBNlM3CAQCDwC40+z4Mr+ITmSd2FZ+Fgtxp+5jHqR6vY6VlRWcPHkSjz/+OLLZrIqp0B+g7wTB Co0f+MAHcMUVV6iMNSEEQqEQRkdHEQqFVKSYz9VzRrjyn2523UkGAPl8HhcuXMD6+rraNCCdTiOZ TCo8VCyWkEwm0Wi0tNoq/dJjZmYGH//4x3H48OG+gnlWY2M1vvQud7CNC3a7TXmEzSmUUkq8/PLL +Pa3v63Hr+4MhUIPbMYDW5EkkFL+AbpZa8OcZcMcNab7DbRozN9ZKxUAjh8/jpmZGVx55ZXweDwA oNzqemUAoGP6XnnllZicnEQmk4Hf70cwGEQgEOgrf0VdDvQqBRCTMM7jcDiUPnc4HGqrt6WlJaRS qb4IMgBVbrxz756KcLmcqq+XXnopPv7xj2P37t1qkZY+ZlaWosM67OIAABF5SURBVA5cmbb5ox/9 CI899piSkkyoYlqDXsKi2WzinnvuwY033ojrr78etVrtD7ZC/00lCQAEg8HTQojfN/9ulgJ6G/R9 kCSx+k1KCb/fj6mpKUSjUdjtdhw/flzVXyXzEHzq5qkQnTSD7du3Y3JyUtWm1xehEzjqkVuanSyt xWAhZyMZjKqBHlQSpbPbRL57v16VJC5qdzgcuOaaa/DJT34Su3bt6lskpv83j7PV9/vvvx//+I// 2JfiQFCspy9wPDpZb2v46le/itXV1d8PhUKnh1O+07bEJAAQCAS+COA58+9mzDHoRc0vyGsHeVz5 2e1245JLLsEll1yCPXv2oFgsYmlpSelo+hFoeQC9lXs0c7mJEBOW6cfQz2f/mQjEkpl0ZrFPujvd 4/H0VRrobJJUhBBcTioUFiHDf/jDH8Ztt92Gbdu29S0uG6ZazOMipcSPfvQjfO9731OOOUpAoLfk RK/axPdsNpt45plnnpuZmfniQCKZ2pbUjdY+B+ARK3Vh9ZJ628yxZqWPed/t27djenoasVgM0WgU Z86cweTkJEZHRzdUG7Ayv2kV6AuouOCcOSC6j4ReUaYoUkoAUOmHZgmRy+VRrVb6nuvxuJWja8eO Hfjwhz+Myy67TJnUg8bMSs3ozr4jR47gW9/6ltrpE+hZfIzP6NdzwvBYvV7/3FBimNprYpJAIPBo Pp//IoAvDHoxtkGYYxBeGQSGhRBqOzS/34/x8XHMz8/j5ZdfVjVf9TxVXTrp6N7r9SKdTqviMRxQ qhWa07Rg9DJZtGx4b736IwAVj+mpTgM+n7dr8jpx9dVX4+abb8bU1JTaL5j94juaDQOrEEiz2cR9 992H22+/XVWBIshmcjglH6WkmVkAfHF9ff3RLRMdr12SIBgM/n6hULgWwA06MfUX1H83Wzts+ncr i8l8PpG60+lENBrF6dOnMT8/j/379yvgR73LWUfxSs9sMBhUcSDiGXpjpZQqmLe4uIiRkRHl1Gq3 22qvHep7phjQ3U7RTium3W5jdHQU73vf+3DFFVcgHo+rAB6lgz4++nvrjWNQLpdxzz334I47vq0K ADPnBeiVG6VjkCqOi9K7Y/HI6urqBmy5WXvNTNJ9kd+QUj4npfQNUiNmIgPWTGTFIPpxIYTKKQWg /B779u1TDrOZmRkl1qmbSTT+BkBtycpCMQR6fF6z2cSFC0s4fvxl3HTTTX19pIeUaY3cDo0M2G5L 2GxG16Kx4dChQ7jllluwc+dOtVxVB8GDxs0sQUjoe++9F7fffgcqlQ4G0RlWz6Yjc1C90LppNpsl wzB+Y4sk7muvi0n8fv9soVD4rBDie/rLDbPpAetCNlthMmZ3Ua20Wi1Eo1FcdtllOHXqFJaXlzE9 Pd2XFabno3KgWq0WfD4fpqenkcvlcObMGWX1cBHXq6++grW1NXUtzUjej9KMhKaVQ5Xk9Xpx/fXX 4/rrr1dRa/pG9Ax9q/HRP+sq8/HHH8df//Vfd6sN9IJ9tGj0rDwdlxC8do9/9ty5c31piVttr4tJ ACAQCPxdoVC4BMDvmV+UzUqamBtnqdV5vJ6zn/iD+jYSiWD//v04c+YMhBAYGxtTqoezi7qY4l3K zmbOe/bswerqKo4dO6byTrjlaqlUUkskdKBqLjpME5ozO5FIKCce3flcvqEz1iDm0CUX0GGQn/3s Z/jLv/xLZDIZBAJ+VT2BakaIXiEf4iJOFjKPYRj/9dSpU3+3der2t9fNJAAQCAS+UCgUdsG08o8v rCNtoF/amFH4oCaEQCwWw+joKLLZrLJACNR8Ph927NiB8+fPo1wuY2RkRNWjJ8CkBNBX0oXDYbzr Xe/C6dOn8cILLyhsUiwW+6K+ulTS34MSRcpOttsll1yCm266Cbt27VLYg4E7AlWz1WGlfnles9nE k08+ia997Ws4d+4cHA6Hil7r6lS3WlwuN1otJnSrvJg7T5w4scHQeC3tDTFJ94U+KaXcBuA9g6yX QdbNVpvL5cKePXvw9NNPK4zChUpcSrF9+3aUy2U1s5kGQImgF+ejVEkkErjhhhtw9uxZrK2tqdTB cDiixLluYnOW6t5QQODGG2/E4cOHFdglY/A/Rb8uQYZJ3kajgYcffhh//ud/juXlZQjR23/YZrMD kMpC67xPZ0EXALRa6AJoA0KIx9vt9idf84Cb2padaYOa3++XhmH8GwAnzeJy0ECYj20mSQzDwPbt 2zE1NdW3qTT3yzWMTj36iYkJ+Hw+AL1NiRjDoEoh4YgVDhw4gE996lPYs2cPAoFAdy8+O/L5vGIG 3WLSVWA4HMaHPvRBXHvttSr1kbEk5sAQFwxTqbqEaTabeOKJJ/DNb34TS0tLXWecQ+WcAFKlSpBp 7XabYqKOR9kOh8NxUgjxb2ZnZ1/fgietvWFJAgA+n2+5VCrd1m63jwCY0pH5IFN3M+tH/w3oSBPu qMmoq1lcc9ZST+vonwCTM5VAT0qJq6++GiMjI7jrrh9ieXkJ9XoDi4uLKo+Vul0NWlcVxWIxbN++ Xa0D4p9eflMH02zmCcKxaLVaeOqpp/CNb3wD58+fV8eoXmmt+Hw+xVD8XXeqSSkXWq3mbbOzs8tv mLi4CJKEzefznQTwMQCrwxxr+m9WKH+Ysy0Wi2Hnzp0q75QRYf2PBKWjjZso6rqbIJISxev1Yt++ ffjlX/4ELrvsMjgcdiSTnf39KDWY3MzZy755vV6VLsiosW7J6O86SM2QeWdnZ/GNb3wDr776qnL5 G4ahpB4BM1cZUtUyb7dr7q8C+Njs7OzJN0pTtosiSdgCgcDzhULhwwDulVKOm8EZsDFLbZDTzcww UnYy0LiDFsPhoVAI4XBYqQQSR3dp65YNAS8HnE4pm82m1tfMz8+rGNHk5OQGaUAJQZOczKEziv5c tkEOQyEElpeXcfvtt+PkyZNwOByqpBZNWH0Ru9vdUzv6GmUAy4Zh3HrixInnLwpBu+2iMgkABAKB nxWLxQ9IKe+WUu4a5Adh0/UxB2yQ5Dlx4gS+8Y1vwO12IxqNKlCq79pJLKI3SgM61Sie9d8ogbha L51OY25uDufPn8fExITulFLqjOBZB6m6K9+sXs3vw//ZbBbf/e538fTTnWT1arWqGJ3JQVwfTH8M GZ7HDMN4pVar/eKZM2defE0E20K76EwCAH6//8VSqfReKeUPpJTvMh/XpYTVZyv/QTqdxkMPPYTz 58+rReAknK7/WXJKX0FnFvW6lUJgSfc1/SLcH49xEP0a/d6ssqgnAFlJELOlx/+VSgV33XUX7rvv /r5oLqUHI9E06fm+ZMpuBv5z7Xb7fzx79uy5i0PB/nbRMIm5+Xy+cwBuFELcZz62Gco3n9tut/HK K6+gUqlg586dAHo7fzLXlakCerKwnpZIZtCfz8EmTmF6IXeSiMVisNvtfVuwAr1CwEAnpmIuomeW HoNCEPV6HQ899BB+8IMfoFQqol5vqN1LeT1zbakaiae0Gi33NRqNG98sBgHeJEnC5vf7iwBuLRQK fwHgt4DhkkPHIvrvlUoFi4uLCIfDcLlceOWVV1SoH4BKTmYsxgo06wzYh1PQW89C5uI5FPfFYrEv g53nSSkVdhjkcjf3ga3VauHZZ5/Fd7/7XaTT6a7aEGp9jN1uR6FQUMlRjFJzbLqM85XZ2dnfvkjk GtjeVCZhCwQCv10sFk9JKf/CDEb1ZqVu7Ha7WglHkEjvKNCJftKzSnWge3PNjiyKcpWmqK1toX6n KuHCKW69yuM81+l0qnxb3sM8CcyNRD516hTuuOMOzM3NKUlRrVbVwvZKpaIWnlG98V26/fjt48eP f+Uikmlge9PUjbn5/f6vCCGuA3DCSqWYxTnF6quvvoqHH35YhfNttk6xPbrD9VxV4gczU+ipBHwe 1ZMZMOsWERnS7/er5/EavVYa8QybWc3o7ymEwOrqKr797W/j2LEXAKC7JLOzrW273VbpmQSm7Edn IthPtFqt694qBgHeIknC5vf7Hy8Wi1cA+AqAz1j5RRhbeeGFF3DPPffgX/7lXxAOh3HzzTcD6KQz Tk1NIZfLqYXcTG4maNUDevp/MpkuSUg4fZkH/SJkGr2oHj2d7K9V7Q8r9cLnZLNZ/O3f/i0eeeQR OBx2BX5DoSAqlYpSnSxww752/TzfklL+1tmzZ3s1sd6C9pYyCQD4/f4agH9XKBQellL+nwDGaJkU i0UcO3YMd999N37yk59gdXUVExMTGBsbgxCdJRGRSAStVguJREIxihBCrY/RV6npC5HIIDoz6GpJ d5iRoHo1aLNDDYBSPXzOINNdB7l33nkn7r77brhcLpVL6/F4UC6XAUBl5jscDlXMzzCMFQD/4cyZ M687kvtG2lvOJGyBQODvqtXqPwH40vr6+md+8pOf4P7778fTTz+FZDIFAHjPe96DW2+9Fevr67DZ bCrHVcpOCiHxAi0cgkvuoGWWVFQRdKQB1plgeukJnZFsNptyXOmpkVZZZrrKYX/vvfdefO97f9eX 8+FyuVRqApmcz+ne/1tSyv/9zJkzmYtNg622t41JAMDtdmcA/LsPfehDd504ceK/5PP5wwRxe/bs wU033YRwOKxUip4bSucSQ+gs1w30PKt0jpFQ1O+UNLpU0TPKyVj6KnwAfRn5VAFWIFX/TF/LT37y E9x+++1oNOpKUtjtnQLG+h6CLMJjt9ufaTQa/8f8/Lyqp/p2tbeVSdh+9KMfHQFwJBQK/YYQ4vec Tue2AwcOIBQKQQihdvfkzlYMdJFA+i7jQog+cKlbJOa0QaoUnWkIgHXiE5/wnuYlFjqz6RYa7/HK K6/gjjvuUFUNuNanVCqpvhMjVSqVC4Zh/NeTJ09+/S0a/k3bW2bdbKXlcrmvR6PRGcMw/rPX602R QCQ+GUBnFMZrgJ6TSweeQE/km5mExNF3/9Z9ETqz8LPOePzT67rq9waA9fV1fOc738GZM2dQrXZU JIsUA70iwM1mK1Wv1/+zy+WaOXXq1M8NgwA/Z0wCAHNzc63V1dU/icVik41G4z8Wi8UF1jfT154Q G+hgVK/noUsaMgOlgO4xJfNRLbRl716UMryejEYmoZoolUp992ErlUq488478eMf/7i7AN2m4j1c /S+EWGg2m//RMMTk7Ozsn7z88svWG928jW149O3npH3uc5/7te3bt39m9+7d17DMk77WBuiZuual jWZgqTvDgH6gqksefbETJQ3LSwFQofxkMgnDMPDRj34U0WhUMVOz2cSRI0fwp3/6p12/hwv5fE7F mCqVypNCiG+dOnXq22/lWL6e9q+CSdjuu+++d7tcrk+32+1P2O32SKvVUmCWuRd0j+vued3RRSKR EcxmrY4/GIGlimN5rEajAZ/Ph2azibW1NRw9ehTbtm3DZz/7WYyMjKDZbOLYsWP4wz/8Q5w/fx4+ n4+mekYIcWer1fqb2dnZn771I/j62r8qJtHbww8/fFuz2fw4gFsdDkeQqub/7e76WRoG4uj7XRKa hkpxsASL4CA4KjgILgUHHfpFCv0U/TpdHNykZBRMqWg2QYggiE0GQUloL5ec009OERcp1b71poPH 8d77/Tku1fNrwumtmaiyBeYgy9QsDD4zwyxubJJSol6vQwiB6XSKOI4RxzF830ev14PjOBgMBphM rmHb1utsNjt3HOcsiqIfl8X8VfxbkpgYjUanRHSilDqu1Wr7XM013Y85FM7TeyZJvgpdTn5Zx3D9 hvfTs/3mjwHa7TaSJMF8PkcYhjfj8TjQWl9EUbR0C/tbrARJTARB0PI870hrfQjggIj2iKjF/aws dpko3MAD4BNRzMk4XvyrlEKWZR9zuEIIpGmaNBqN206nMwFwNRwOL/v9frKk6y8EK0eS7xCG4aZl WbtCiJ2qqra11luu6/oANpRS61rrNa21B8AhIkFElW3bhZQyl1K+VVX1kmVZWhTFc57nj2VZPjSb zfuyLO+63e7Tsu+3aLwDxy1Ko4D2wUAAAAAASUVORK5CYII= "
       style="image-rendering:optimizeSpeed"
       preserveAspectRatio="none"
       height="52.777885"
       width="52.072334" />
  </g>
</svg>
